(export (version D)
  (design
    (source /home/riton/projects/power-supply-LM317-LM337/kicad/power-supply-lm317-lm337.sch)
    (date "sam. 25 sept. 2021 18:15:06 CEST")
    (tool "Eeschema 4.0.7-e2-6376~61~ubuntu18.04.1")
    (sheet (number 1) (name /) (tstamps /)
      (title_block
        (title)
        (company)
        (rev)
        (date)
        (source power-supply-lm317-lm337.sch)
        (comment (number 1) (value ""))
        (comment (number 2) (value ""))
        (comment (number 3) (value ""))
        (comment (number 4) (value "")))))
  (components
    (comp (ref D1)
      (value PBL405)
      (footprint myDiodes:bridge_5.08)
      (libsource (lib power-supply-lm317-lm337-cache) (part Diode_Bridge))
      (sheetpath (names /) (tstamps /))
      (tstamp 57DEDC63))
    (comp (ref C2)
      (value "4700µF 40V")
      (footprint myCapacitors:C_Axial_D25_L50_P55)
      (libsource (lib device) (part CP))
      (sheetpath (names /) (tstamps /))
      (tstamp 5825DF7C))
    (comp (ref C3)
      (value 100nF)
      (footprint Capacitors_THT:C_Rect_L7.0mm_W2.5mm_P5.00mm)
      (libsource (lib device) (part C))
      (sheetpath (names /) (tstamps /))
      (tstamp 5825E17C))
    (comp (ref C4)
      (value 100nF)
      (footprint Capacitors_THT:C_Rect_L7.0mm_W2.5mm_P5.00mm)
      (libsource (lib device) (part C))
      (sheetpath (names /) (tstamps /))
      (tstamp 5825E2C8))
    (comp (ref C8)
      (value 100pF)
      (footprint Capacitors_THT:C_Rect_L7.0mm_W2.5mm_P5.00mm)
      (libsource (lib device) (part C))
      (sheetpath (names /) (tstamps /))
      (tstamp 589B972B))
    (comp (ref C7)
      (value 100pF)
      (footprint Capacitors_THT:C_Rect_L7.0mm_W2.5mm_P5.00mm)
      (libsource (lib device) (part C))
      (sheetpath (names /) (tstamps /))
      (tstamp 589B977C))
    (comp (ref P1)
      (value AC-9-18V)
      (footprint Connectors_Terminal_Blocks:TerminalBlock_bornier-3_P5.08mm)
      (libsource (lib power-supply-lm317-lm337-cache) (part CONN_01X03))
      (sheetpath (names /) (tstamps /))
      (tstamp 58F48A6D))
    (comp (ref P7)
      (value OUT)
      (footprint Connectors_Terminal_Blocks:TerminalBlock_bornier-3_P5.08mm)
      (libsource (lib power-supply-lm317-lm337-cache) (part CONN_01X03))
      (sheetpath (names /) (tstamps /))
      (tstamp 5974BAB5))
    (comp (ref C1)
      (value "4700µF 40V")
      (footprint myCapacitors:C_Axial_D25_L50_P55)
      (libsource (lib device) (part CP))
      (sheetpath (names /) (tstamps /))
      (tstamp 5825DF44))
    (comp (ref U2)
      (value LM317)
      (footprint TO_SOT_Packages_THT:TO-220-3_Horizontal)
      (libsource (lib regul) (part LM317_3PinPackage))
      (sheetpath (names /) (tstamps /))
      (tstamp 6138C8B0))
    (comp (ref R1)
      (value 1.5K)
      (footprint Resistors_THT:R_Axial_DIN0207_L6.3mm_D2.5mm_P10.16mm_Horizontal)
      (libsource (lib device) (part R))
      (sheetpath (names /) (tstamps /))
      (tstamp 6138C999))
    (comp (ref R2)
      (value 1.5K)
      (footprint Resistors_THT:R_Axial_DIN0207_L6.3mm_D2.5mm_P10.16mm_Horizontal)
      (libsource (lib device) (part R))
      (sheetpath (names /) (tstamps /))
      (tstamp 6138CB5E))
    (comp (ref R3)
      (value 240)
      (footprint Resistors_THT:R_Axial_DIN0207_L6.3mm_D2.5mm_P10.16mm_Horizontal)
      (libsource (lib device) (part R))
      (sheetpath (names /) (tstamps /))
      (tstamp 6138CD65))
    (comp (ref U3)
      (value LM337)
      (footprint TO_SOT_Packages_THT:TO-220-3_Horizontal)
      (libsource (lib regul) (part LM337_TO220))
      (sheetpath (names /) (tstamps /))
      (tstamp 6138D065))
    (comp (ref R4)
      (value 240)
      (footprint Resistors_THT:R_Axial_DIN0207_L6.3mm_D2.5mm_P10.16mm_Horizontal)
      (libsource (lib device) (part R))
      (sheetpath (names /) (tstamps /))
      (tstamp 6138D0CA))
    (comp (ref C10)
      (value "100µF 25V")
      (footprint Capacitors_THT:CP_Radial_D6.3mm_P2.50mm)
      (libsource (lib device) (part CP))
      (sheetpath (names /) (tstamps /))
      (tstamp 6138CE9F))
    (comp (ref C9)
      (value "100µF 25V")
      (footprint Capacitors_THT:CP_Radial_D6.3mm_P2.50mm)
      (libsource (lib device) (part CP))
      (sheetpath (names /) (tstamps /))
      (tstamp 6138D0A2))
    (comp (ref RV2)
      (value 2K)
      (footprint Potentiometers:Potentiometer_Trimmer_Bourns_3296W)
      (libsource (lib device) (part POT))
      (sheetpath (names /) (tstamps /))
      (tstamp 614C6DB5))
    (comp (ref RV1)
      (value 2K)
      (footprint Potentiometers:Potentiometer_Trimmer_Bourns_3296W)
      (libsource (lib device) (part POT))
      (sheetpath (names /) (tstamps /))
      (tstamp 614C766A))
    (comp (ref TP3)
      (value VDD)
      (footprint Pin_Headers:Pin_Header_Straight_1x01_Pitch2.54mm)
      (libsource (lib device) (part TEST))
      (sheetpath (names /) (tstamps /))
      (tstamp 614DA04B))
    (comp (ref TP4)
      (value VEE)
      (footprint Pin_Headers:Pin_Header_Straight_1x01_Pitch2.54mm)
      (libsource (lib device) (part TEST))
      (sheetpath (names /) (tstamps /))
      (tstamp 614DA24D))
    (comp (ref TP5)
      (value GND)
      (footprint Pin_Headers:Pin_Header_Straight_1x01_Pitch2.54mm)
      (libsource (lib device) (part TEST))
      (sheetpath (names /) (tstamps /))
      (tstamp 614DA4A3))
    (comp (ref C11)
      (value "10µF 25V")
      (footprint Capacitors_THT:CP_Radial_D5.0mm_P2.00mm)
      (libsource (lib device) (part CP))
      (sheetpath (names /) (tstamps /))
      (tstamp 614DB318))
    (comp (ref C12)
      (value "10µF 25V")
      (footprint Capacitors_THT:CP_Radial_D5.0mm_P2.00mm)
      (libsource (lib device) (part CP))
      (sheetpath (names /) (tstamps /))
      (tstamp 614DB38A))
    (comp (ref D2)
      (value 1N4002)
      (footprint Diodes_THT:D_DO-41_SOD81_P10.16mm_Horizontal)
      (libsource (lib device) (part D))
      (sheetpath (names /) (tstamps /))
      (tstamp 614DCDCD))
    (comp (ref D3)
      (value 1N4002)
      (footprint Diodes_THT:D_DO-41_SOD81_P10.16mm_Horizontal)
      (libsource (lib device) (part D))
      (sheetpath (names /) (tstamps /))
      (tstamp 614DCFA1))
    (comp (ref D4)
      (value 1N4002)
      (footprint Diodes_THT:D_DO-41_SOD81_P10.16mm_Horizontal)
      (libsource (lib device) (part D))
      (sheetpath (names /) (tstamps /))
      (tstamp 614DD84C))
    (comp (ref D5)
      (value 1N4002)
      (footprint Diodes_THT:D_DO-41_SOD81_P10.16mm_Horizontal)
      (libsource (lib device) (part D))
      (sheetpath (names /) (tstamps /))
      (tstamp 614DDB9D))
    (comp (ref R5)
      (value 10K)
      (footprint Resistors_THT:R_Axial_DIN0207_L6.3mm_D2.5mm_P10.16mm_Horizontal)
      (libsource (lib device) (part R))
      (sheetpath (names /) (tstamps /))
      (tstamp 614F462D))
    (comp (ref D6)
      (value LED)
      (footprint LEDs:LED_D3.0mm)
      (libsource (lib device) (part LED))
      (sheetpath (names /) (tstamps /))
      (tstamp 614F4988))
    (comp (ref D7)
      (value LED)
      (footprint LEDs:LED_D3.0mm)
      (libsource (lib device) (part LED))
      (sheetpath (names /) (tstamps /))
      (tstamp 614F4F16))
    (comp (ref R6)
      (value 10K)
      (footprint Resistors_THT:R_Axial_DIN0207_L6.3mm_D2.5mm_P10.16mm_Horizontal)
      (libsource (lib device) (part R))
      (sheetpath (names /) (tstamps /))
      (tstamp 614F4FAF)))
  (libparts
    (libpart (lib device) (part C)
      (description "Unpolarized capacitor")
      (footprints
        (fp C_*))
      (fields
        (field (name Reference) C)
        (field (name Value) C))
      (pins
        (pin (num 1) (name ~) (type passive))
        (pin (num 2) (name ~) (type passive))))
    (libpart (lib power-supply-lm317-lm337-cache) (part CONN_01X03)
      (footprints
        (fp Pin_Header_Straight_1X03)
        (fp Pin_Header_Angled_1X03)
        (fp Socket_Strip_Straight_1X03)
        (fp Socket_Strip_Angled_1X03))
      (fields
        (field (name Reference) P)
        (field (name Value) CONN_01X03))
      (pins
        (pin (num 1) (name P1) (type passive))
        (pin (num 2) (name P2) (type passive))
        (pin (num 3) (name P3) (type passive))))
    (libpart (lib device) (part CP)
      (description "Polarised capacitor")
      (footprints
        (fp CP_*))
      (fields
        (field (name Reference) C)
        (field (name Value) CP))
      (pins
        (pin (num 1) (name ~) (type passive))
        (pin (num 2) (name ~) (type passive))))
    (libpart (lib device) (part D)
      (description Diode)
      (footprints
        (fp TO-???*)
        (fp *SingleDiode)
        (fp *_Diode_*)
        (fp *SingleDiode*)
        (fp D_*))
      (fields
        (field (name Reference) D)
        (field (name Value) D))
      (pins
        (pin (num 1) (name K) (type passive))
        (pin (num 2) (name A) (type passive))))
    (libpart (lib power-supply-lm317-lm337-cache) (part Diode_Bridge)
      (fields
        (field (name Reference) D)
        (field (name Value) Diode_Bridge))
      (pins
        (pin (num 1) (name -) (type input))
        (pin (num 2) (name ~) (type input))
        (pin (num 3) (name +) (type input))
        (pin (num 4) (name ~) (type input))))
    (libpart (lib device) (part LED)
      (description "LED generic")
      (footprints
        (fp LED*))
      (fields
        (field (name Reference) D)
        (field (name Value) LED))
      (pins
        (pin (num 1) (name K) (type passive))
        (pin (num 2) (name A) (type passive))))
    (libpart (lib regul) (part LM317_3PinPackage)
      (aliases
        (alias AZ1117-ADJ))
      (description "1A 35V Adjustable Linear Regulator, SOT-89/SOT-223/TO-220/TO-252/TO-263")
      (docs http://www.ti.com/lit/ds/symlink/lm317.pdf)
      (footprints
        (fp SOT?223*)
        (fp SOT?89*)
        (fp TO?220*)
        (fp TO?252*)
        (fp TO?263*))
      (fields
        (field (name Reference) U)
        (field (name Value) LM317_3PinPackage))
      (pins
        (pin (num 1) (name ADJ) (type input))
        (pin (num 2) (name VO) (type power_out))
        (pin (num 3) (name VI) (type power_in))))
    (libpart (lib regul) (part LM337_TO220)
      (aliases
        (alias LT1033C)
        (alias OM1323_TO220))
      (description "Negative 1.5A 35V Adjustable Linear Regulator, TO-220")
      (docs http://www.ti.com/lit/ds/symlink/lm337-n.pdf)
      (footprints
        (fp TO?220*))
      (fields
        (field (name Reference) U)
        (field (name Value) LM337_TO220)
        (field (name Footprint) TO_SOT_Packages_THT:TO-220_Vertical))
      (pins
        (pin (num 1) (name ADJ) (type input))
        (pin (num 2) (name VI) (type power_in))
        (pin (num 3) (name VO) (type power_out))))
    (libpart (lib device) (part POT)
      (description Potentiometer)
      (footprints
        (fp Potentiometer*))
      (fields
        (field (name Reference) RV)
        (field (name Value) POT))
      (pins
        (pin (num 1) (name 1) (type passive))
        (pin (num 2) (name 2) (type passive))
        (pin (num 3) (name 3) (type passive))))
    (libpart (lib device) (part R)
      (description Resistor)
      (footprints
        (fp R_*)
        (fp R_*))
      (fields
        (field (name Reference) R)
        (field (name Value) R))
      (pins
        (pin (num 1) (name ~) (type passive))
        (pin (num 2) (name ~) (type passive))))
    (libpart (lib device) (part TEST)
      (description "Testpoint, connection for test equipment")
      (fields
        (field (name Reference) TP)
        (field (name Value) TEST))
      (pins
        (pin (num 1) (name ~) (type passive)))))
  (libraries
    (library (logical device)
      (uri /usr/share/kicad/library/device.lib))
    (library (logical regul)
      (uri /usr/share/kicad/library/regul.lib))
    (library (logical power-supply-lm317-lm337-cache)
      (uri /home/riton/projects/power-supply-LM317-LM337/kicad/power-supply-lm317-lm337-cache.lib)))
  (nets
    (net (code 1) (name GND)
      (node (ref RV1) (pin 3))
      (node (ref C3) (pin 2))
      (node (ref C4) (pin 1))
      (node (ref RV2) (pin 2))
      (node (ref C8) (pin 1))
      (node (ref RV1) (pin 2))
      (node (ref C7) (pin 2))
      (node (ref P1) (pin 2))
      (node (ref P7) (pin 2))
      (node (ref R5) (pin 2))
      (node (ref C1) (pin 2))
      (node (ref R6) (pin 1))
      (node (ref TP5) (pin 1))
      (node (ref C11) (pin 2))
      (node (ref C12) (pin 1))
      (node (ref C2) (pin 1))
      (node (ref C10) (pin 1))
      (node (ref C9) (pin 2))
      (node (ref RV2) (pin 3)))
    (net (code 2) (name "Net-(R2-Pad2)")
      (node (ref R2) (pin 2))
      (node (ref RV2) (pin 1)))
    (net (code 3) (name "Net-(R1-Pad1)")
      (node (ref R1) (pin 1))
      (node (ref RV1) (pin 1)))
    (net (code 4) (name "Net-(D6-Pad1)")
      (node (ref D6) (pin 1))
      (node (ref R5) (pin 1)))
    (net (code 5) (name "Net-(D7-Pad2)")
      (node (ref R6) (pin 2))
      (node (ref D7) (pin 2)))
    (net (code 6) (name "Net-(C1-Pad1)")
      (node (ref U2) (pin 3))
      (node (ref C7) (pin 1))
      (node (ref D1) (pin 3))
      (node (ref D4) (pin 1))
      (node (ref C3) (pin 1))
      (node (ref C1) (pin 1)))
    (net (code 7) (name "Net-(C11-Pad1)")
      (node (ref R1) (pin 2))
      (node (ref U2) (pin 1))
      (node (ref C11) (pin 1))
      (node (ref R3) (pin 2))
      (node (ref D2) (pin 2)))
    (net (code 8) (name "Net-(C12-Pad2)")
      (node (ref R2) (pin 1))
      (node (ref R4) (pin 1))
      (node (ref U3) (pin 1))
      (node (ref C12) (pin 2))
      (node (ref D3) (pin 1)))
    (net (code 9) (name "Net-(D1-Pad2)")
      (node (ref P1) (pin 1))
      (node (ref D1) (pin 2)))
    (net (code 10) (name "Net-(D1-Pad4)")
      (node (ref D1) (pin 4))
      (node (ref P1) (pin 3)))
    (net (code 11) (name "Net-(C10-Pad2)")
      (node (ref P7) (pin 1))
      (node (ref D7) (pin 1))
      (node (ref U3) (pin 3))
      (node (ref R4) (pin 2))
      (node (ref C10) (pin 2))
      (node (ref TP4) (pin 1))
      (node (ref D3) (pin 2))
      (node (ref D5) (pin 1)))
    (net (code 12) (name "Net-(C9-Pad1)")
      (node (ref U2) (pin 2))
      (node (ref TP3) (pin 1))
      (node (ref D4) (pin 2))
      (node (ref D2) (pin 1))
      (node (ref C9) (pin 1))
      (node (ref P7) (pin 3))
      (node (ref D6) (pin 2))
      (node (ref R3) (pin 1)))
    (net (code 13) (name "Net-(C2-Pad2)")
      (node (ref U3) (pin 2))
      (node (ref D5) (pin 2))
      (node (ref C4) (pin 2))
      (node (ref D1) (pin 1))
      (node (ref C2) (pin 2))
      (node (ref C8) (pin 2)))))