EESchema Schematic File Version 2
LIBS:power
LIBS:device
LIBS:transistors
LIBS:conn
LIBS:linear
LIBS:regul
LIBS:74xx
LIBS:cmos4000
LIBS:adc-dac
LIBS:memory
LIBS:xilinx
LIBS:microcontrollers
LIBS:dsp
LIBS:microchip
LIBS:analog_switches
LIBS:motorola
LIBS:texas
LIBS:intel
LIBS:audio
LIBS:interface
LIBS:digital-audio
LIBS:philips
LIBS:display
LIBS:cypress
LIBS:siliconi
LIBS:opto
LIBS:atmel
LIBS:contrib
LIBS:valves
LIBS:my-passives
LIBS:my-regulators
LIBS:my-transformers
LIBS:my-power-supplies
LIBS:my-power
LIBS:power-supply-lm317-lm337-cache
EELAYER 25 0
EELAYER END
$Descr A3 16535 11693
encoding utf-8
Sheet 1 1
Title ""
Date ""
Rev ""
Comp ""
Comment1 ""
Comment2 ""
Comment3 ""
Comment4 ""
$EndDescr
$Comp
L Diode_Bridge D1
U 1 1 57DEDC63
P 7100 5550
F 0 "D1" H 6850 5850 50  0000 C CNN
F 1 "PBL405" H 7100 5550 50  0000 C CNN
F 2 "myDiodes:bridge_5.08" H 7100 5550 50  0001 C CNN
F 3 "" H 7100 5550 50  0000 C CNN
	1    7100 5550
	1    0    0    -1  
$EndComp
$Comp
L CP C2
U 1 1 5825DF7C
P 7850 6350
F 0 "C2" H 7875 6450 50  0000 L CNN
F 1 "4700µF 40V" H 7650 6250 50  0000 L CNN
F 2 "myCapacitors:C_Axial_D25_L50_P55" H 7888 6200 50  0001 C CNN
F 3 "" H 7850 6350 50  0000 C CNN
	1    7850 6350
	1    0    0    -1  
$EndComp
$Comp
L C C3
U 1 1 5825E17C
P 8200 5350
F 0 "C3" H 8225 5450 50  0000 L CNN
F 1 "100nF" H 8225 5250 50  0000 L CNN
F 2 "Capacitors_THT:C_Rect_L7.0mm_W2.5mm_P5.00mm" H 8238 5200 50  0001 C CNN
F 3 "" H 8200 5350 50  0000 C CNN
	1    8200 5350
	1    0    0    -1  
$EndComp
$Comp
L C C4
U 1 1 5825E2C8
P 8200 6350
F 0 "C4" H 8225 6450 50  0000 L CNN
F 1 "100nF" H 8225 6250 50  0000 L CNN
F 2 "Capacitors_THT:C_Rect_L7.0mm_W2.5mm_P5.00mm" H 8238 6200 50  0001 C CNN
F 3 "" H 8200 6350 50  0000 C CNN
	1    8200 6350
	1    0    0    -1  
$EndComp
$Comp
L C C8
U 1 1 589B972B
P 8500 6350
F 0 "C8" H 8525 6450 50  0000 L CNN
F 1 "100pF" H 8525 6250 50  0000 L CNN
F 2 "Capacitors_THT:C_Rect_L7.0mm_W2.5mm_P5.00mm" H 8538 6200 50  0001 C CNN
F 3 "" H 8500 6350 50  0000 C CNN
	1    8500 6350
	1    0    0    -1  
$EndComp
$Comp
L C C7
U 1 1 589B977C
P 8500 5350
F 0 "C7" H 8525 5450 50  0000 L CNN
F 1 "100pF" H 8525 5250 50  0000 L CNN
F 2 "Capacitors_THT:C_Rect_L7.0mm_W2.5mm_P5.00mm" H 8538 5200 50  0001 C CNN
F 3 "" H 8500 5350 50  0000 C CNN
	1    8500 5350
	1    0    0    -1  
$EndComp
$Comp
L CONN_01X03 P1
U 1 1 58F48A6D
P 6200 5550
F 0 "P1" H 6200 5350 50  0000 C CNN
F 1 "AC-9-18V" V 6300 5550 50  0000 C CNN
F 2 "Connectors_Terminal_Blocks:TerminalBlock_bornier-3_P5.08mm" H 6200 5550 50  0001 C CNN
F 3 "" H 6200 5550 50  0000 C CNN
	1    6200 5550
	-1   0    0    1   
$EndComp
$Comp
L CONN_01X03 P7
U 1 1 5974BAB5
P 11050 5850
F 0 "P7" H 11050 6050 50  0000 C CNN
F 1 "OUT" H 11200 5850 50  0000 C CNN
F 2 "Connectors_Terminal_Blocks:TerminalBlock_bornier-3_P5.08mm" H 11050 5850 50  0001 C CNN
F 3 "" H 11050 5850 50  0000 C CNN
	1    11050 5850
	1    0    0    1   
$EndComp
$Comp
L CP C1
U 1 1 5825DF44
P 7850 5350
F 0 "C1" H 7875 5450 50  0000 L CNN
F 1 "4700µF 40V" H 7650 5250 50  0000 L CNN
F 2 "myCapacitors:C_Axial_D25_L50_P55" H 7888 5200 50  0001 C CNN
F 3 "" H 7850 5350 50  0000 C CNN
	1    7850 5350
	1    0    0    -1  
$EndComp
$Comp
L GND #PWR01
U 1 1 60102BE1
P 7500 5950
F 0 "#PWR01" H 7500 5700 50  0001 C CNN
F 1 "GND" H 7500 5800 50  0000 C CNN
F 2 "" H 7500 5950 50  0000 C CNN
F 3 "" H 7500 5950 50  0000 C CNN
	1    7500 5950
	1    0    0    -1  
$EndComp
$Comp
L GND #PWR02
U 1 1 603CD010
P 6500 6050
F 0 "#PWR02" H 6500 5800 50  0001 C CNN
F 1 "GND" H 6500 5900 50  0000 C CNN
F 2 "" H 6500 6050 50  0000 C CNN
F 3 "" H 6500 6050 50  0000 C CNN
	1    6500 6050
	1    0    0    -1  
$EndComp
$Comp
L LM317_3PinPackage U2
U 1 1 6138C8B0
P 9300 4850
F 0 "U2" H 9150 4975 50  0000 C CNN
F 1 "LM317" H 9300 4975 50  0000 L CNN
F 2 "TO_SOT_Packages_THT:TO-220-3_Horizontal" H 9300 5100 50  0001 C CIN
F 3 "" H 9300 4850 50  0001 C CNN
	1    9300 4850
	1    0    0    -1  
$EndComp
$Comp
L R R1
U 1 1 6138C999
P 9050 5350
F 0 "R1" V 9130 5350 50  0000 C CNN
F 1 "1.5K" V 9050 5350 50  0000 C CNN
F 2 "Resistors_THT:R_Axial_DIN0207_L6.3mm_D2.5mm_P10.16mm_Horizontal" V 8980 5350 50  0001 C CNN
F 3 "" H 9050 5350 50  0001 C CNN
	1    9050 5350
	0    -1   -1   0   
$EndComp
$Comp
L R R2
U 1 1 6138CB5E
P 9050 6350
F 0 "R2" V 9130 6350 50  0000 C CNN
F 1 "1.5K" V 9050 6350 50  0000 C CNN
F 2 "Resistors_THT:R_Axial_DIN0207_L6.3mm_D2.5mm_P10.16mm_Horizontal" V 8980 6350 50  0001 C CNN
F 3 "" H 9050 6350 50  0001 C CNN
	1    9050 6350
	0    1    1    0   
$EndComp
$Comp
L R R3
U 1 1 6138CD65
P 9700 5100
F 0 "R3" V 9780 5100 50  0000 C CNN
F 1 "240" V 9700 5100 50  0000 C CNN
F 2 "Resistors_THT:R_Axial_DIN0207_L6.3mm_D2.5mm_P10.16mm_Horizontal" V 9630 5100 50  0001 C CNN
F 3 "" H 9700 5100 50  0001 C CNN
	1    9700 5100
	1    0    0    -1  
$EndComp
$Comp
L LM337_TO220 U3
U 1 1 6138D065
P 9300 6850
F 0 "U3" H 9150 6725 50  0000 C CNN
F 1 "LM337" H 9300 6725 50  0000 L CNN
F 2 "TO_SOT_Packages_THT:TO-220-3_Horizontal" H 9300 6650 50  0001 C CIN
F 3 "" H 9300 6850 50  0001 C CNN
	1    9300 6850
	1    0    0    -1  
$EndComp
$Comp
L R R4
U 1 1 6138D0CA
P 9700 6600
F 0 "R4" V 9780 6600 50  0000 C CNN
F 1 "240" V 9700 6600 50  0000 C CNN
F 2 "Resistors_THT:R_Axial_DIN0207_L6.3mm_D2.5mm_P10.16mm_Horizontal" V 9630 6600 50  0001 C CNN
F 3 "" H 9700 6600 50  0001 C CNN
	1    9700 6600
	1    0    0    -1  
$EndComp
$Comp
L CP C10
U 1 1 6138CE9F
P 10100 6100
F 0 "C10" H 10125 6200 50  0000 L CNN
F 1 "100µF 25V" H 9850 6000 50  0000 L CNN
F 2 "Capacitors_THT:CP_Radial_D6.3mm_P2.50mm" H 10138 5950 50  0001 C CNN
F 3 "" H 10100 6100 50  0000 C CNN
	1    10100 6100
	1    0    0    -1  
$EndComp
$Comp
L CP C9
U 1 1 6138D0A2
P 10100 5600
F 0 "C9" H 10150 5500 50  0000 L CNN
F 1 "100µF 25V" H 9850 5750 50  0000 L CNN
F 2 "Capacitors_THT:CP_Radial_D6.3mm_P2.50mm" H 10138 5450 50  0001 C CNN
F 3 "" H 10100 5600 50  0000 C CNN
	1    10100 5600
	1    0    0    -1  
$EndComp
Wire Wire Line
	8200 6850 8200 6500
Wire Wire Line
	8200 5500 8200 6200
Wire Wire Line
	8500 5500 8500 6200
Connection ~ 8200 6850
Connection ~ 8200 4850
Wire Wire Line
	8200 4850 8200 5200
Connection ~ 7850 6850
Wire Wire Line
	7850 6850 7850 6500
Wire Wire Line
	7850 5500 7850 6200
Connection ~ 7850 4850
Wire Wire Line
	7850 4850 7850 5200
Wire Wire Line
	7600 4850 9000 4850
Connection ~ 8500 4850
Connection ~ 8500 6850
Wire Wire Line
	6550 5050 7100 5050
Wire Wire Line
	6550 5050 6550 5450
Wire Wire Line
	6550 5650 6550 6050
Connection ~ 8500 5850
Wire Wire Line
	10850 5950 10750 5950
Wire Wire Line
	10750 5950 10750 6100
Wire Wire Line
	10550 6000 10750 6000
Wire Wire Line
	10750 5750 10850 5750
Wire Wire Line
	10750 5600 10750 5750
Wire Wire Line
	10550 5700 10750 5700
Wire Wire Line
	7500 5850 7500 5950
Connection ~ 10750 5700
Connection ~ 10750 6000
Wire Wire Line
	7500 5550 7600 5550
Wire Wire Line
	7600 5550 7600 4850
Wire Wire Line
	6700 5550 6600 5550
Wire Wire Line
	6600 5550 6600 6850
Wire Wire Line
	7100 6050 7100 5950
Wire Wire Line
	7100 5050 7100 5150
Connection ~ 7850 5850
Connection ~ 8200 5850
Wire Wire Line
	6600 6850 9000 6850
Connection ~ 9300 5850
Wire Wire Line
	10100 5750 10100 5950
Wire Wire Line
	10100 6850 10100 6250
Wire Wire Line
	9600 6850 10550 6850
Wire Wire Line
	9600 4850 10550 4850
Wire Wire Line
	10100 4850 10100 5450
Connection ~ 10100 5850
Wire Wire Line
	10550 6850 10550 6000
Connection ~ 10100 6850
Wire Wire Line
	10550 4850 10550 5700
Connection ~ 10100 4850
Wire Wire Line
	9300 5600 9300 6100
Wire Wire Line
	9200 5350 9900 5350
Connection ~ 9300 5350
Wire Wire Line
	9700 4500 9700 4950
Connection ~ 9700 4850
Wire Wire Line
	9700 6750 9700 7200
Connection ~ 9700 6850
Wire Wire Line
	9200 6350 9900 6350
Wire Wire Line
	9300 6350 9300 6550
Wire Wire Line
	6500 5550 6500 6050
$Comp
L POT RV2
U 1 1 614C6DB5
P 9050 6100
F 0 "RV2" V 9100 6300 50  0000 C CNN
F 1 "2K" V 9050 6100 50  0000 C CNN
F 2 "Potentiometers:Potentiometer_Trimmer_Bourns_3296W" H 9050 6100 50  0001 C CNN
F 3 "" H 9050 6100 50  0001 C CNN
	1    9050 6100
	0    -1   -1   0   
$EndComp
Connection ~ 9300 6350
Wire Wire Line
	8900 6100 8800 6100
Wire Wire Line
	8800 6100 8800 6350
Wire Wire Line
	8800 6350 8900 6350
Wire Wire Line
	9300 5350 9300 5150
$Comp
L POT RV1
U 1 1 614C766A
P 9050 5600
F 0 "RV1" V 9100 5800 50  0000 C CNN
F 1 "2K" V 9050 5600 50  0000 C CNN
F 2 "Potentiometers:Potentiometer_Trimmer_Bourns_3296W" H 9050 5600 50  0001 C CNN
F 3 "" H 9050 5600 50  0001 C CNN
	1    9050 5600
	0    -1   1    0   
$EndComp
Wire Wire Line
	8900 5600 8800 5600
Wire Wire Line
	8800 5600 8800 5350
Wire Wire Line
	8800 5350 8900 5350
Wire Wire Line
	9300 6100 9200 6100
Wire Wire Line
	9050 5950 9300 5950
Connection ~ 9300 5950
Wire Wire Line
	9200 5600 9300 5600
Wire Wire Line
	9050 5750 9300 5750
Connection ~ 9300 5750
Wire Wire Line
	6550 6050 7100 6050
$Comp
L TEST TP3
U 1 1 614DA04B
P 10750 5600
F 0 "TP3" H 10750 5900 50  0000 C BNN
F 1 "VDD" H 10750 5850 50  0000 C CNN
F 2 "Pin_Headers:Pin_Header_Straight_1x01_Pitch2.54mm" H 10750 5600 50  0001 C CNN
F 3 "" H 10750 5600 50  0001 C CNN
	1    10750 5600
	1    0    0    -1  
$EndComp
$Comp
L TEST TP4
U 1 1 614DA24D
P 10750 6100
F 0 "TP4" H 10750 6400 50  0000 C BNN
F 1 "VEE" H 10750 6350 50  0000 C CNN
F 2 "Pin_Headers:Pin_Header_Straight_1x01_Pitch2.54mm" H 10750 6100 50  0001 C CNN
F 3 "" H 10750 6100 50  0001 C CNN
	1    10750 6100
	-1   0    0    1   
$EndComp
$Comp
L TEST TP5
U 1 1 614DA4A3
P 7250 6500
F 0 "TP5" H 7250 6800 50  0000 C BNN
F 1 "GND" H 7250 6750 50  0000 C CNN
F 2 "Pin_Headers:Pin_Header_Straight_1x01_Pitch2.54mm" H 7250 6500 50  0001 C CNN
F 3 "" H 7250 6500 50  0001 C CNN
	1    7250 6500
	1    0    0    -1  
$EndComp
$Comp
L CP C11
U 1 1 614DB318
P 9700 5600
F 0 "C11" H 9550 5750 50  0000 L CNN
F 1 "10µF 25V" H 9500 5500 50  0000 L CNN
F 2 "Capacitors_THT:CP_Radial_D5.0mm_P2.00mm" H 9738 5450 50  0001 C CNN
F 3 "" H 9700 5600 50  0000 C CNN
	1    9700 5600
	1    0    0    -1  
$EndComp
$Comp
L CP C12
U 1 1 614DB38A
P 9700 6100
F 0 "C12" H 9550 6000 50  0000 L CNN
F 1 "10µF 25V" H 9550 6200 50  0000 L CNN
F 2 "Capacitors_THT:CP_Radial_D5.0mm_P2.00mm" H 9738 5950 50  0001 C CNN
F 3 "" H 9700 6100 50  0000 C CNN
	1    9700 6100
	1    0    0    -1  
$EndComp
Wire Wire Line
	9700 5750 9700 5950
Connection ~ 9700 5850
Wire Wire Line
	9700 5250 9700 5450
Connection ~ 9700 5350
Wire Wire Line
	9700 6250 9700 6450
Connection ~ 9700 6350
$Comp
L GND #PWR03
U 1 1 614DCC5E
P 7250 6600
F 0 "#PWR03" H 7250 6350 50  0001 C CNN
F 1 "GND" H 7250 6450 50  0000 C CNN
F 2 "" H 7250 6600 50  0000 C CNN
F 3 "" H 7250 6600 50  0000 C CNN
	1    7250 6600
	1    0    0    -1  
$EndComp
Wire Wire Line
	7250 6600 7250 6500
$Comp
L D D2
U 1 1 614DCDCD
P 9900 5100
F 0 "D2" V 10000 5150 50  0000 C CNN
F 1 "1N4002" V 9750 5100 50  0000 C CNN
F 2 "Diodes_THT:D_DO-41_SOD81_P10.16mm_Horizontal" H 9900 5100 50  0001 C CNN
F 3 "" H 9900 5100 50  0001 C CNN
	1    9900 5100
	0    1    1    0   
$EndComp
$Comp
L D D3
U 1 1 614DCFA1
P 9900 6600
F 0 "D3" V 9800 6650 50  0000 C CNN
F 1 "1N4002" V 10050 6600 50  0000 C CNN
F 2 "Diodes_THT:D_DO-41_SOD81_P10.16mm_Horizontal" H 9900 6600 50  0001 C CNN
F 3 "" H 9900 6600 50  0001 C CNN
	1    9900 6600
	0    1    1    0   
$EndComp
$Comp
L D D4
U 1 1 614DD84C
P 9300 4500
F 0 "D4" H 9150 4400 50  0000 C CNN
F 1 "1N4002" H 9300 4650 50  0000 C CNN
F 2 "Diodes_THT:D_DO-41_SOD81_P10.16mm_Horizontal" H 9300 4500 50  0001 C CNN
F 3 "" H 9300 4500 50  0001 C CNN
	1    9300 4500
	1    0    0    -1  
$EndComp
Wire Wire Line
	9150 4500 8900 4500
Wire Wire Line
	8900 4500 8900 4850
Connection ~ 8900 4850
Wire Wire Line
	9450 4500 9700 4500
$Comp
L D D5
U 1 1 614DDB9D
P 9300 7200
F 0 "D5" H 9150 7100 50  0000 C CNN
F 1 "1N4002" H 9300 7350 50  0000 C CNN
F 2 "Diodes_THT:D_DO-41_SOD81_P10.16mm_Horizontal" H 9300 7200 50  0001 C CNN
F 3 "" H 9300 7200 50  0001 C CNN
	1    9300 7200
	-1   0    0    1   
$EndComp
Wire Wire Line
	9150 7200 8900 7200
Wire Wire Line
	8900 7200 8900 6850
Connection ~ 8900 6850
Wire Wire Line
	9700 7200 9450 7200
Wire Wire Line
	9900 6350 9900 6450
Wire Wire Line
	9900 5350 9900 5250
Wire Wire Line
	9900 6750 9900 6850
Connection ~ 9900 6850
Wire Wire Line
	9900 4950 9900 4850
Connection ~ 9900 4850
Text Notes 6450 4600 0    60   ~ 0
LM317/LM337 9V-19.5V
Wire Wire Line
	6500 5550 6400 5550
Wire Wire Line
	6550 5650 6400 5650
Wire Wire Line
	6550 5450 6400 5450
$Comp
L R R5
U 1 1 614F462D
P 10350 5600
F 0 "R5" V 10430 5600 50  0000 C CNN
F 1 "10K" V 10350 5600 50  0000 C CNN
F 2 "Resistors_THT:R_Axial_DIN0207_L6.3mm_D2.5mm_P10.16mm_Horizontal" V 10280 5600 50  0001 C CNN
F 3 "" H 10350 5600 50  0001 C CNN
	1    10350 5600
	1    0    0    -1  
$EndComp
$Comp
L LED D6
U 1 1 614F4988
P 10350 5100
F 0 "D6" H 10350 5200 50  0000 C CNN
F 1 "LED" H 10350 5000 50  0000 C CNN
F 2 "LEDs:LED_D3.0mm" H 10350 5100 50  0001 C CNN
F 3 "" H 10350 5100 50  0001 C CNN
	1    10350 5100
	0    -1   -1   0   
$EndComp
$Comp
L LED D7
U 1 1 614F4F16
P 10350 6600
F 0 "D7" H 10350 6700 50  0000 C CNN
F 1 "LED" H 10350 6500 50  0000 C CNN
F 2 "LEDs:LED_D3.0mm" H 10350 6600 50  0001 C CNN
F 3 "" H 10350 6600 50  0001 C CNN
	1    10350 6600
	0    -1   -1   0   
$EndComp
$Comp
L R R6
U 1 1 614F4FAF
P 10350 6100
F 0 "R6" V 10430 6100 50  0000 C CNN
F 1 "10K" V 10350 6100 50  0000 C CNN
F 2 "Resistors_THT:R_Axial_DIN0207_L6.3mm_D2.5mm_P10.16mm_Horizontal" V 10280 6100 50  0001 C CNN
F 3 "" H 10350 6100 50  0001 C CNN
	1    10350 6100
	1    0    0    -1  
$EndComp
Wire Wire Line
	7500 5850 10850 5850
Wire Wire Line
	10350 4950 10350 4850
Connection ~ 10350 4850
Wire Wire Line
	10350 5250 10350 5450
Wire Wire Line
	10350 5750 10350 5950
Connection ~ 10350 5850
Wire Wire Line
	10350 6250 10350 6450
Wire Wire Line
	10350 6750 10350 6850
Connection ~ 10350 6850
Wire Wire Line
	8500 5200 8500 4850
Wire Wire Line
	8500 6500 8500 6850
$EndSCHEMATC
